Research Transparency, Reproducibility, and Basic Data Analysis in R! - Appendix E — Answers for sec-tidyex
…
Still working with the starwars dataframe, convert the species variable to factor. Then, group and summarise the mean height by species, and print this in descending order. Report which species is the tallest, on average. Then, rearrange and report the species which is the shortest, on average.

# Convert species to factor

stardf$species <- as.factor(stardf$species)

# Which is the tallest species, on average?

stardf %>%
  group_by(species) %>%
  summarise(mean_height = mean(height)) %>%
  arrange(desc(mean_height))

# A tibble: 38 × 2
   species  mean_height
   <fct>          <dbl>
 1 Quermian        264 
 2 Wookiee         231 
 3 Kaminoan        221 
 4 Kaleesh         216 
 5 Gungan          209.
 6 Pau'an          206 
 7 Besalisk        198 
 8 Cerean          198 
 9 Chagrian        196 
10 Nautolan        196 
# ℹ 28 more rows

## The Quermian species is the tallest on average.

# Which is the shortest species on average?

stardf %>%
  group_by(species) %>%
  summarise(mean_height = mean(height)) %>%
  arrange(mean_height)

# A tibble: 38 × 2
   species        mean_height
   <fct>                <dbl>
 1 Yoda's species         66 
 2 Aleena                 79 
 3 Ewok                   88 
 4 Vulptereen             94 
 5 Dug                   112 
 6 Droid                 121.
 7 Xexto                 122 
 8 Toydarian             137 
 9 Sullustan             160 
10 Toong                 163 
# ℹ 28 more rows
…
